<svg width="64" height="64" viewBox="0 0 64 64" fill="none" xmlns="http://www.w3.org/2000/svg">
<path d="M63.0887 43.8635C63.0883 43.8635 63.0879 43.8633 63.0875 43.8633V43.8602L58.9574 43.2708C58.3766 43.1887 57.9724 42.6514 58.0544 42.0707C58.094 41.7907 58.2436 41.5381 58.47 41.3687L59.824 40.3556H62.6574C63.2439 40.3556 63.7194 39.8801 63.7194 39.2936V1.06199C63.7194 0.475506 63.2439 0 62.6574 0H1.06199C0.475507 0 9.43353e-07 0.475506 9.43353e-07 1.06199V39.2936C9.43353e-07 39.8801 0.475507 40.3556 1.06199 40.3556H3.8083L2.43514 41.7287C2.07327 42.091 2.0215 42.66 2.31195 43.0817L4.32973 46.0171L0.838973 46.7498C0.348997 46.8551 -0.0006628 47.2884 9.43353e-07 47.7895V52.0375C-0.000264554 52.5398 0.351652 52.9736 0.843221 53.0772L4.33398 53.811L2.3162 56.7453C2.02575 57.167 2.07752 57.736 2.43939 58.0983L5.62536 61.2842C5.98763 61.6461 6.55659 61.6979 6.97833 61.4074L9.91261 59.3896L10.6464 62.8804C10.7513 63.3688 11.1824 63.718 11.6819 63.7194H15.9298C16.4322 63.7196 16.866 63.3677 16.9695 62.8761L17.7034 59.3843L20.6376 61.4074C21.0594 61.6979 21.6283 61.6461 21.9906 61.2842L25.1766 58.0983C25.5385 57.736 25.5902 57.167 25.2998 56.7453L23.282 53.8099L26.7728 53.0772C27.2627 52.9719 27.6124 52.5386 27.6117 52.0375V47.7895C27.612 47.2872 27.2601 46.8534 26.7685 46.7498L23.2777 46.016L25.2955 43.0817C25.586 42.66 25.5342 42.091 25.1723 41.7287L23.8034 40.3556H28.1863L27.3367 46.2656C27.2525 46.8459 27.6547 47.3848 28.2351 47.4691C28.2396 47.4697 28.2443 47.4704 28.2488 47.4709L32.3789 48.0603C32.9596 48.1424 33.3639 48.6797 33.2818 49.2604C33.2423 49.5403 33.0927 49.793 32.8663 49.9624L29.5233 52.4623C29.054 52.8142 28.959 53.4798 29.3109 53.9491L33.1341 59.0466C33.486 59.5159 34.1516 59.6109 34.6209 59.259L37.9587 56.7548C38.4278 56.4028 39.0936 56.4978 39.4455 56.967C39.6147 57.1925 39.6873 57.4761 39.6473 57.7552L39.0568 61.8853C38.9736 62.466 39.3767 63.004 39.9572 63.0873C39.9576 63.0873 39.958 63.0875 39.9584 63.0875L46.2656 63.988C46.3155 63.9956 46.3659 63.9996 46.4164 63.9997C46.945 63.9997 47.3931 63.6109 47.4677 63.0875L48.0582 58.9574C48.1409 58.3768 48.6787 57.9731 49.2593 58.0558C49.5384 58.0955 49.79 58.2445 49.9592 58.47L52.4623 61.8078C52.8142 62.2771 53.4798 62.3721 53.9491 62.0202L59.0466 58.197C59.5159 57.8451 59.6109 57.1795 59.259 56.7102L56.7548 53.3724C56.4028 52.9033 56.4978 52.2375 56.967 51.8856C57.1925 51.7164 57.4762 51.6437 57.7552 51.6838L61.8853 52.2732C62.4658 52.3566 63.0041 51.9534 63.0875 51.3729C63.0875 51.3728 63.0875 51.3728 63.0875 51.3727L63.9891 45.0655C64.0723 44.485 63.6692 43.9468 63.0887 43.8635ZM25.4877 48.6519V51.1751L22.8402 51.7316C21.6922 51.9728 20.9572 53.0989 21.1984 54.2469C21.2564 54.5228 21.3686 54.7843 21.5286 55.0164L23.0452 57.2221L21.1145 59.1528L18.9087 57.632C17.9428 56.9664 16.6203 57.2099 15.9545 58.1758C15.795 58.4074 15.6829 58.6684 15.6251 58.9436L15.0675 61.5954H12.5442L11.9867 58.9489C11.7439 57.8013 10.6167 57.0677 9.4691 57.3105C9.19656 57.3681 8.9381 57.4789 8.70831 57.6363L6.49725 59.1528L4.56656 57.2221L6.08732 55.0164C6.75346 54.0507 6.51079 52.728 5.54518 52.0619C5.31313 51.9018 5.05162 51.7895 4.77577 51.7316L2.12398 51.1751V48.6519L4.77152 48.0954C5.91913 47.8524 6.65244 46.7251 6.40951 45.5775C6.35176 45.3047 6.24078 45.0459 6.08308 44.816L4.56656 42.6049L6.49725 40.6742L8.70831 42.1907C9.67419 42.8563 10.9969 42.6129 11.6625 41.647C11.8221 41.4153 11.9341 41.1543 11.992 40.8792L12.5442 38.2316H15.0675L15.6251 40.8781C15.8661 42.0261 16.9921 42.7614 18.1401 42.5203C18.4156 42.4625 18.6768 42.3504 18.9087 42.1907L21.1145 40.6742L23.0452 42.6049L21.5286 44.816C20.8625 45.7816 21.1052 47.1043 22.0708 47.7704C22.3028 47.9305 22.5644 48.0428 22.8402 48.1007L25.4877 48.6519ZM18.3374 40.0041L17.7002 40.4416L16.9663 36.9509C16.8631 36.4604 16.431 36.109 15.9298 36.1076H13.8059V28.6737H18.0538V39.2936C18.0555 39.5576 18.1568 39.8113 18.3374 40.0041ZM23.3638 22.3018C22.7773 22.3018 22.3018 22.7773 22.3018 23.3638V38.2316H20.1778V27.6117C20.1778 27.0252 19.7023 26.5497 19.1158 26.5497H12.7439C12.1574 26.5497 11.6819 27.0252 11.6819 27.6117V36.1076C11.1796 36.1074 10.7457 36.4593 10.6422 36.9509L9.90836 40.4427L6.97409 38.4196C6.79634 38.3002 6.58606 38.2388 6.37194 38.2433V38.2316H2.12398V2.12398H61.5954V36.816L58.197 32.2845C57.8451 31.8152 57.1795 31.7202 56.7102 32.0721L53.3724 34.5763C52.9033 34.9283 52.2375 34.8333 51.8856 34.3641C51.7164 34.1386 51.6437 33.855 51.6838 33.5759L52.2743 29.4458C52.3148 29.1516 52.2288 28.8541 52.0375 28.627V9.55791C52.0375 8.97142 51.562 8.49592 50.9755 8.49592H44.6036C44.0171 8.49592 43.5416 8.97142 43.5416 9.55791V30.494L43.2729 32.3737C43.195 32.9502 42.6644 33.3546 42.0878 33.2766C41.8257 33.2412 41.5864 33.1084 41.4176 32.9047V14.8679C41.4176 14.2814 40.9421 13.8059 40.3556 13.8059H33.9837C33.3972 13.8059 32.9217 14.2814 32.9217 14.8679V32.6562L32.2845 33.1341C31.8152 33.486 31.7202 34.1516 32.0721 34.6209L34.5763 37.9587C34.9283 38.4278 34.8333 39.0936 34.3641 39.4455C34.1386 39.6147 33.8549 39.6873 33.5759 39.6473L30.7977 39.2511V23.3638C30.7977 22.7773 30.3222 22.3018 29.7357 22.3018H23.3638ZM49.9135 10.6199V28.0365L45.6655 27.4291V10.6199H49.9135ZM39.2936 15.9298V30.0904L38.8688 29.5233C38.5169 29.054 37.8513 28.959 37.382 29.3109L35.0457 31.0632V15.9298H39.2936ZM28.6737 38.2316H24.4258V24.4258H28.6737V38.2316ZM61.1345 50.0197L58.0547 49.58C56.3128 49.3313 54.6991 50.5417 54.4503 52.2836C54.3308 53.12 54.5486 53.9698 55.0557 54.6457L56.9226 57.135L53.5243 59.6838L51.6584 57.1956C50.6034 55.7872 48.6066 55.5009 47.1984 56.5557C46.5214 57.0628 46.0739 57.8184 45.9544 58.6558L45.5147 61.7356L41.3114 61.1345L41.7511 58.0547C41.9993 56.3128 40.7884 54.6994 39.0464 54.4511C38.2108 54.332 37.362 54.5495 36.6864 55.0557L34.1961 56.9226L31.6473 53.5243L34.1345 51.6583C35.5423 50.6027 35.8278 48.6058 34.7722 47.1981C34.2654 46.5222 33.5107 46.0752 32.6742 45.9555L29.5945 45.5147L30.1955 41.3103L33.2753 41.75C35.0172 41.9988 36.6309 40.7884 36.8797 39.0464C36.9992 38.21 36.7815 37.3603 36.2744 36.6843L34.4085 34.1961L37.8068 31.6473L39.6727 34.1355C40.7277 35.5439 42.7245 35.8302 44.1327 34.7754C44.8097 34.2683 45.2572 33.5127 45.3767 32.6753L45.8163 29.5955L50.0208 30.1966L49.5811 33.2764C49.3329 35.0183 50.5438 36.6317 52.2857 36.88C53.1214 36.999 53.9702 36.7816 54.6457 36.2754L57.135 34.4085L59.6838 37.8068L57.1966 39.6727C55.7888 40.7284 55.5033 42.7253 56.5589 44.133C57.0657 44.8089 57.8204 45.2559 58.6569 45.3756L61.7366 45.8163L61.1345 50.0197Z" fill="#CCAD67"/>
<path d="M13.8058 43.5416C10.2867 43.5416 7.4339 46.3944 7.4339 49.9136C7.4339 53.4327 10.2867 56.2855 13.8058 56.2855C17.325 56.2855 20.1778 53.4327 20.1778 49.9136C20.1743 46.3959 17.3235 43.5451 13.8058 43.5416ZM13.8058 54.1615C11.4598 54.1615 9.55788 52.2596 9.55788 49.9136C9.55788 47.5675 11.4598 45.6656 13.8058 45.6656C16.1519 45.6656 18.0538 47.5675 18.0538 49.9136C18.0538 52.2596 16.1519 54.1615 13.8058 54.1615Z" fill="#CCAD67"/>
<path d="M45.6655 37.1697C40.9734 37.1697 37.1696 40.9735 37.1696 45.6656C37.1696 50.3577 40.9734 54.1615 45.6655 54.1615C50.3577 54.1615 54.1614 50.3577 54.1614 45.6656C54.1561 40.9756 50.3555 37.175 45.6655 37.1697ZM45.6655 52.0375C42.1464 52.0375 39.2936 49.1848 39.2936 45.6656C39.2936 42.1464 42.1464 39.2937 45.6655 39.2937C49.1847 39.2937 52.0375 42.1464 52.0375 45.6656C52.034 49.1833 49.1832 52.0341 45.6655 52.0375Z" fill="#CCAD67"/>
<path d="M42.692 4.26914L37.382 3.20715L36.9572 5.28865L39.5315 5.80478L11.1445 22.4472L12.2193 24.2802L40.9737 7.42431L40.3769 10.4074L42.4584 10.8237L43.5203 5.51379C43.6325 4.94191 43.2628 4.38649 42.692 4.26914Z" fill="#CCAD67"/>
<path d="M6.37196 28.6737H4.24799V36.1076H6.37196V28.6737Z" fill="#CCAD67"/>
<path d="M6.37196 24.4258H4.24799V26.5498H6.37196V24.4258Z" fill="#CCAD67"/>
<path d="M59.4714 13.8059H57.3474V29.7358H59.4714V13.8059Z" fill="#CCAD67"/>
<path d="M59.4714 9.55786H57.3474V11.6818H59.4714V9.55786Z" fill="#CCAD67"/>
<path d="M26.5498 60.5334H24.4258V62.6574H26.5498V60.5334Z" fill="#CCAD67"/>
<path d="M30.7977 60.5334H28.6737V62.6574H30.7977V60.5334Z" fill="#CCAD67"/>
<path d="M35.0457 60.5334H32.9217V62.6574H35.0457V60.5334Z" fill="#CCAD67"/>
</svg>
