<svg width="352" height="352" viewBox="0 0 352 352" fill="none" xmlns="http://www.w3.org/2000/svg">
<path d="M322.667 78.7541V41.0667C322.656 31.3509 314.782 23.4769 305.067 23.4666H263.785C209.443 -7.82221 142.557 -7.82221 88.2151 23.4666H46.9334C37.2177 23.4769 29.3437 31.3509 29.3334 41.0667V78.7541C-9.77781 137.686 -9.77781 214.315 29.3334 273.247V310.933C29.3437 320.649 37.2177 328.523 46.9334 328.533H88.2151C142.557 359.822 209.443 359.822 263.785 328.533H305.067C314.782 328.523 322.656 320.649 322.667 310.933V273.246C361.778 214.315 361.778 137.687 322.667 78.7541ZM29.3334 249.929C17.7422 227.01 11.7128 201.683 11.7334 176C11.7128 150.317 17.7422 124.991 29.3334 102.072V249.929ZM87.9999 316.8H46.9334C43.6946 316.797 41.0697 314.172 41.067 310.934V41.0667C41.0704 37.8278 43.6946 35.203 46.9334 35.2002H87.9999V316.8ZM236.869 23.4666H115.131C154.203 7.82256 197.797 7.82256 236.869 23.4666ZM176 340.267C155.15 340.247 134.494 336.266 115.131 328.533H236.869C217.506 336.266 196.85 340.248 176 340.267ZM310.934 310.934C310.93 314.173 308.306 316.798 305.067 316.8H99.7335V35.2002H305.067C308.306 35.2036 310.931 37.8278 310.934 41.0667V310.934ZM322.667 102.072C334.258 124.991 340.287 150.317 340.267 176C340.287 201.683 334.258 227.01 322.667 249.929V102.072Z" fill="url(#paint0_linear)"/>
<path d="M64.5334 82.1339C74.2533 82.1339 82.1334 74.2544 82.1334 64.5339C82.1334 54.8133 74.254 46.9338 64.5334 46.9338C54.8129 46.9338 46.9334 54.8133 46.9334 64.5339C46.9437 74.2496 54.8177 82.1229 64.5334 82.1339ZM64.5334 58.6667C67.7736 58.6667 70.3999 61.2937 70.3999 64.5332C70.3999 67.7734 67.7729 70.3996 64.5334 70.3996C61.2932 70.3996 58.667 67.7727 58.667 64.5332C58.6697 61.295 61.2946 58.6702 64.5334 58.6667Z" fill="url(#paint1_linear)"/>
<path d="M64.5334 158.4C54.8129 158.4 46.9334 166.28 46.9334 176C46.9334 185.721 54.8129 193.6 64.5334 193.6C74.2533 193.6 82.1334 185.72 82.1334 176C82.1224 166.284 74.2492 158.41 64.5334 158.4ZM64.5334 181.867C61.2932 181.867 58.667 179.24 58.667 176C58.667 172.76 61.2939 170.134 64.5334 170.134C67.7736 170.134 70.3999 172.76 70.3999 176C70.3964 179.239 67.7722 181.864 64.5334 181.867Z" fill="url(#paint2_linear)"/>
<path d="M64.5334 269.867C54.8129 269.867 46.9334 277.747 46.9334 287.467C46.9334 297.187 54.8129 305.067 64.5334 305.067C74.2533 305.067 82.1334 297.187 82.1334 287.467C82.1224 277.751 74.2492 269.878 64.5334 269.867ZM64.5334 293.334C61.2932 293.334 58.667 290.708 58.667 287.467C58.667 284.227 61.2939 281.601 64.5334 281.601C67.7736 281.601 70.3999 284.227 70.3999 287.467C70.3964 290.706 67.7722 293.33 64.5334 293.334Z" fill="url(#paint3_linear)"/>
<path d="M134.934 124.326V140.8C134.947 144.973 137.183 148.822 140.8 150.901V217.067C140.799 218.623 141.417 220.115 142.518 221.216C143.618 222.316 145.111 222.934 146.667 222.934H264C265.556 222.935 267.048 222.317 268.149 221.216C269.249 220.116 269.867 218.623 269.867 217.067V150.901C273.485 148.822 275.721 144.973 275.734 140.8V123.2C275.734 121.644 275.116 120.152 274.016 119.051C272.916 117.951 271.423 117.333 269.867 117.333H171.348L262.86 80.844C264.306 80.2693 265.464 79.1425 266.08 77.7125C266.695 76.2825 266.715 74.6661 266.137 73.221L259.617 56.8702C257.205 50.8628 250.39 47.9354 244.372 50.3217L135.38 93.78C129.371 96.1911 126.444 103.008 128.832 109.025L134.934 124.326ZM254.696 129.067H264L264.006 140.8H242.963L254.696 129.067ZM219.496 129.067H238.105L226.371 140.8H207.763L219.496 129.067ZM184.296 129.067H202.905L191.171 140.8H172.562L184.296 129.067ZM258.134 152.534V211.2H152.534V152.534H258.134ZM240.078 64.6685L248.72 61.2221L253.063 72.1189L233.528 79.9083L240.078 64.6685ZM207.381 77.7042L224.662 70.8141L218.112 86.056L200.831 92.9468L207.381 77.7042ZM174.687 90.7399L191.967 83.8505L185.416 99.0937L168.136 105.985L174.687 90.7399ZM155.971 140.8H146.667V129.067H167.705L155.971 140.8ZM159.271 96.8862L152.719 112.131L144.077 115.577L139.729 104.678L159.271 96.8862Z" fill="url(#paint4_linear)"/>
<path d="M170.134 246.4C166.893 246.4 164.267 249.027 164.267 252.267C164.267 255.507 166.893 258.133 170.134 258.133H240.534C243.774 258.133 246.4 255.507 246.4 252.267C246.4 249.027 243.774 246.4 240.534 246.4H170.134Z" fill="url(#paint5_linear)"/>
<path d="M281.6 269.867H129.066C125.826 269.867 123.2 272.494 123.2 275.733C123.2 278.973 125.826 281.6 129.066 281.6H281.6C284.84 281.6 287.467 278.973 287.467 275.733C287.467 272.493 284.84 269.867 281.6 269.867Z" fill="url(#paint6_linear)"/>
<defs>
<linearGradient id="paint0_linear" x1="176" y1="0" x2="176" y2="352" gradientUnits="userSpaceOnUse">
<stop stop-color="#EBCC86" stop-opacity="0.8"/>
<stop offset="1" stop-color="#A0B7C5"/>
</linearGradient>
<linearGradient id="paint1_linear" x1="64.5334" y1="46.9338" x2="64.5334" y2="82.1339" gradientUnits="userSpaceOnUse">
<stop stop-color="#EBCC86" stop-opacity="0.8"/>
<stop offset="1" stop-color="#A0B7C5"/>
</linearGradient>
<linearGradient id="paint2_linear" x1="64.5334" y1="158.4" x2="64.5334" y2="193.6" gradientUnits="userSpaceOnUse">
<stop stop-color="#EBCC86" stop-opacity="0.8"/>
<stop offset="1" stop-color="#A0B7C5"/>
</linearGradient>
<linearGradient id="paint3_linear" x1="64.5334" y1="269.867" x2="64.5334" y2="305.067" gradientUnits="userSpaceOnUse">
<stop stop-color="#EBCC86" stop-opacity="0.8"/>
<stop offset="1" stop-color="#A0B7C5"/>
</linearGradient>
<linearGradient id="paint4_linear" x1="201.867" y1="49.4907" x2="201.867" y2="222.934" gradientUnits="userSpaceOnUse">
<stop stop-color="#EBCC86" stop-opacity="0.8"/>
<stop offset="1" stop-color="#A0B7C5"/>
</linearGradient>
<linearGradient id="paint5_linear" x1="205.334" y1="246.4" x2="205.334" y2="258.133" gradientUnits="userSpaceOnUse">
<stop stop-color="#EBCC86" stop-opacity="0.8"/>
<stop offset="1" stop-color="#A0B7C5"/>
</linearGradient>
<linearGradient id="paint6_linear" x1="205.333" y1="269.867" x2="205.333" y2="281.6" gradientUnits="userSpaceOnUse">
<stop stop-color="#EBCC86" stop-opacity="0.8"/>
<stop offset="1" stop-color="#A0B7C5"/>
</linearGradient>
</defs>
</svg>
